<?xml version="1.0" encoding="UTF-8"?>
<svg width="30px" height="22px" viewBox="0 0 30 22" version="1.1" xmlns="http://www.w3.org/2000/svg" xmlns:xlink="http://www.w3.org/1999/xlink">
    <!-- Generator: Sketch 46.1 (44463) - http://www.bohemiancoding.com/sketch -->
    <title>MENU</title>
    <desc>Created with Sketch.</desc>
    <defs></defs>
    <g id="Dashboard" stroke="none" stroke-width="1" fill="none" fill-rule="evenodd">
        <g transform="translate(-45.000000, -41.000000)" id="MENU" fill-rule="nonzero" fill="#FFFFFF">
            <g transform="translate(45.000000, 41.000000)">
                <path d="M1.28571321,3 L28.7142868,3 C29.4214291,3 30,2.325 30,1.5 C30,0.675 29.4214291,0 28.7142868,0 L1.28571321,0 C0.578570942,0 0,0.675 0,1.5 C0,2.325 0.578570942,3 1.28571321,3 Z" id="Shape"></path>
                <path d="M1.28571321,13 L28.7142868,13 C29.4214291,13 30,12.325 30,11.5 C30,10.675 29.4214291,10 28.7142868,10 L1.28571321,10 C0.578570942,10 0,10.675 0,11.5 C0,12.325 0.578570942,13 1.28571321,13 Z" id="Shape"></path>
                <path d="M1.28571321,22 L28.7142868,22 C29.4214291,22 30,21.325 30,20.5 C30,19.675 29.4214291,19 28.7142868,19 L1.28571321,19 C0.578570942,19 0,19.675 0,20.5 C0,21.325 0.578570942,22 1.28571321,22 Z" id="Shape"></path>
            </g>
        </g>
    </g>
</svg>